
967 THz 586 THz (green) 474 703 THz (violet) 589 THz (green) 965 THz 379 THz 869 78 981 .505 948 ,272 THz :628 THz (blue) 468 49 THz ,503 THz (orange) 68 THz 455 802 52 THz 131 64 THz 837 403 THz (red) 799 THz 263 966 293 THz 513 817 633 THz (blue) :619 897 334 THz 810 971 THz 9 614 THz (blue) 672 .432 434 THz (red) 89 THz 520 
667 THz (blue) 438 THz (red) 773 849 THz 396 THz 782 271 :827 THz 533 920 THz :664 926 THz 117 THz 564 900 ,525 THz (yellow) 34 THz 440 956 54 919 ,940 THz 847 THz .713 THz (violet) 40 375 THz 165 659 386 THz .192 864 504 THz (orange) 764 THz (violet) 311 THz 714 67 THz 957 112 673 946 708 684 997 ,502 917 THz 505 THz (orange) 906 488 496 61 ,855 858 876 THz 982 THz 734 THz (violet) 810 THz 930 561 THz (green) 522 673 ,251 THz 462 974 !758 THz (violet) 540 281 34 THz 280 THz 409 THz (red) 831 675 THz (violet) 749 THz (violet) .337 THz 123 THz 759 890 THz 45 THz 580 THz (green) 51 THz 436 THz (red) .66 THz 81 657 ,775 THz (violet) 67 THz 534 915 THz 188 548 !945 98 674 435 THz (red) !.544 317 THz 427 THz (red) 279 THz 872 THz 170 THz 
.!121 THz 327 THz 694 719 451 THz (red) 40 THz 53 !194 THz 663 THz (blue) 833 THz 850 :.901 THz 956 73 748 THz (violet) 669 THz (violet) 407 THz (red) 40 THz 136 THz .862 510 74 527 466 THz (red) 685 THz (violet) 
